^C:\MYWORK\TEMA GRAMATICA\X64\DEBUG\GRAMATICA.OBJ|C:\MYWORK\TEMA GRAMATICA\X64\DEBUG\TEMAGRAMATICA.OBJ
C:\MYWORK\TEMA GRAMATICA\X64\DEBUG\TEMAGRAMATICA.EXE
C:\MYWORK\TEMA GRAMATICA\X64\DEBUG\TEMAGRAMATICA.ILK
C:\MYWORK\TEMA GRAMATICA\X64\DEBUG\TEMAGRAMATICA.PDB
