^C:\MYWORK\TEMA AFD\AFD\AFD.CPP|C:\MYWORK\TEMA AFD\AFD\AFDCLASS.CPP
C:\MYWORK\TEMA AFD\AFD\X64\DEBUG\VC142.PDB
C:\MYWORK\TEMA AFD\AFD\X64\DEBUG\VC142.IDB
C:\MYWORK\TEMA AFD\AFD\X64\DEBUG\AFDCLASS.OBJ
C:\MYWORK\TEMA AFD\AFD\X64\DEBUG\AFD.OBJ
^C:\MYWORK\TEMA AFD\AFD\AFD.CPP
C:\MYWORK\TEMA AFD\AFD\X64\DEBUG\VC142.PDB
^C:\MYWORK\TEMA AFD\AFD\AFDCLASS.CPP
C:\MYWORK\TEMA AFD\AFD\X64\DEBUG\VC142.PDB
