^C:\LFC\MINIMIZARE AFD\MINIMIZARE AFD\DEBUG\AFD_CLASS.OBJ|C:\LFC\MINIMIZARE AFD\MINIMIZARE AFD\DEBUG\MINIMIZARE.OBJ|C:\LFC\MINIMIZARE AFD\MINIMIZARE AFD\DEBUG\SOURCE.OBJ
C:\LFC\MINIMIZARE AFD\DEBUG\MINIMIZARE AFD.EXE
C:\LFC\MINIMIZARE AFD\MINIMIZARE AFD\DEBUG\MINIMIZARE AFD.ILK
C:\LFC\MINIMIZARE AFD\DEBUG\MINIMIZARE AFD.PDB
