^C:\LFC\TEMA2\TEMAGRAMATICA\DEBUG\GRAMATICA.OBJ|C:\LFC\TEMA2\TEMAGRAMATICA\DEBUG\TEMAGRAMATICA.OBJ
/OUT:"C:\LFC\TEMA2\TEMAGRAMATICA\DEBUG\TEMAGRAMATICA.EXE" /INCREMENTAL /ILK:"DEBUG\TEMAGRAMATICA.ILK" /NOLOGO KERNEL32.LIB USER32.LIB GDI32.LIB WINSPOOL.LIB COMDLG32.LIB ADVAPI32.LIB SHELL32.LIB OLE32.LIB OLEAUT32.LIB UUID.LIB ODBC32.LIB ODBCCP32.LIB /MANIFEST /MANIFESTUAC:"level='asInvoker' uiAccess='false'" /manifest:embed /DEBUG /PDB:"C:\LFC\TEMA2\TEMAGRAMATICA\DEBUG\TEMAGRAMATICA.PDB" /SUBSYSTEM:CONSOLE /TLBID:1 /DYNAMICBASE /NXCOMPAT /IMPLIB:"C:\LFC\TEMA2\TEMAGRAMATICA\DEBUG\TEMAGRAMATICA.LIB" /MACHINE:X86 DEBUG\GRAMATICA.OBJ
DEBUG\TEMAGRAMATICA.OBJ
